// Jest Snapshot v1, https://goo.gl/fbAQLP

exports[`should render corrent link to home page 1`] = `
<div>
  <div>
    Unfortunately your requested page has not found
    <a
      href="/"
    >
      Go to the home page
    </a>
  </div>
</div>
`;

exports[`should render custom Four O Four component 1`] = `
<div>
  <div>
    Unfortunately your requested page has not found
    <a
      href="/"
    >
      Go to the home page
    </a>
  </div>
</div>
`;
